
{ 
    "/api/*": {
      "target": "http://localhost:3000",
      "pathRewrite": {"^/api" : ""}
    },

    "scripts": {
        "ng": "ng",
        "start": "ng serve --proxy-config proxy.conf.json",
        "build": "ng build",
        "test": "ng test",
        "lint": "ng lint",
        "e2e": "ng e2e"
      }
}

